…
> aggregate(iris[,-5], as.data.frame(iris$Species), cor)
Erreur dans FUN(X[[i]], ...) : supply both 'x' and 'y' or a matrix-like 'x'
Là on aurait une erreur pour la simple est bonne raison. Comme je disais aggregate traite colonne par colonne le dataframe. En faite la fonction cor attend une matrice de valeur et non pas une colonne. Parce qu'en faite il lui faut l'ensemble des variables pour lui faire une colérration. Il va subset des données par espece et ensuite il va envoyer les données par colonne pour faire les calculs. 

Elle ne pourrait pas le faire une seule variable. Voilà la difference entre aggregate et by. aggregate va vraiment traiter le dataframe colonne par colonne.

# Dplyr ; les tibbles
C'est un package vraiment intéressant développé par Hadley Wickham et c'est franchement un package vraiment optimisé qui permet de faire une manipulation des données de manière très simple. Dplyr sont avantage qu'il a une grammaire et une syntaxe claire et très simple à utiliser. C'est clairement ce qui a de plus rapide en R actuellement encore plus rapide qu'apply, by et aggregate.
Ce qu'il faut de savoir : il va soit travailler avec dataframe, soit avec sa structure de donnée qui lui est propre qui s'appelle le tibble.

> irisData
# A tibble: 150 × 5
   Sepal.Length Sepal.Width Petal.Length Petal.Width Species
          <dbl>       <dbl>        <dbl>       <dbl> <fct>  
 1          5.1         3.5          1.4         0.2 setosa 
 2          4.9         3            1.4         0.2 setosa 
 3          4.7         3.2          1.3         0.2 setosa 
 4          4.6         3.1          1.5         0.2 setosa 
 5          5           3.6          1.4         0.2 setosa 
 6          5.4         3.9          1.7         0.4 setosa 
 7          4.6         3.4          1.4         0.3 setosa 
 8          5           3.4          1.5         0.2 setosa 
 9          4.4         2.9          1.4         0.2 setosa 
10          4.9         3.1          1.5         0.1 setosa 
# … with 140 more rows
Il ne faut pas utiliser head car c'est une classe tibble. L'avantage de tibble c'est que le head est fait automatiquement. Jamais une variable de class tibble s'affichera en entier. Après ce qui est avantageux avec ce type de structure, c'est qu'on connait les dimensions de notre objet. Pas besoin de s'embêter avec un dim> Elle fait 150 lignes et 5 colonnes. Sous chaque colonne on aura le type des variables contenu dans la colonne. dbl : double, fct : facteur car c'est une variable qualicative. 

On va passer à la description de tous les verbes qui sont disponible sous Dplyr.

# Dplyr : select()
# selection pour selectionner des colonnes 
Imaginons que je veuille sélectionner uniquement des colonnes dans notre jeu de données

> select(iris, Sepal.Length, Petal.Length, Species)
# A tibble: 150 × 3
   Sepal.Length Petal.Length Species
          <dbl>        <dbl> <fct>  
 1          5.1          1.4 setosa 
 2          4.9          1.4 setosa 
 3          4.7          1.3 setosa 
 4          4.6          1.5 setosa 
 5          5            1.4 setosa 
 6          5.4          1.7 setosa 
 7          4.6          1.4 setosa 
 8          5            1.5 setosa 
 9          4.4          1.4 setosa 
10          4.9          1.5 setosa 
# … with 140 more rows
En premier argument select attend le tibble ou le dataframe qui nous intéresse. Après il attend tous les noms de colonnes que l'on veut afficher. Il me dit bien j'ai 3 colonnes et 150 lignes. C'est simple de sélectionner des colonnes. on a plus besoin de s'embêter les crochets. On donne le jeux de données et les colonnes que l'on a selectionné. 

> select(iris, Sepal.Length:Sepal.Width)
# A tibble: 150 × 2
   Sepal.Length Sepal.Width
          <dbl>       <dbl>
 1          5.1         3.5
 2          4.9         3  
 3          4.7         3.2
 4          4.6         3.1
 5          5           3.6
 6          5.4         3.9
 7          4.6         3.4
 8          5           3.4
 9          4.4         2.9
10          4.9         3.1
# … with 140 more rows
On peut utilisé les deux points comme on a déjà utilisé avec les deux points comme les colonnes de 1 à 3 [1:3].
DOnc la vous voyez qu'on a bien sélectionner les deux colonnes

> select(iris, -Species)
# A tibble: 150 × 4
   Sepal.Length Sepal.Width Petal.Length Petal.Width
          <dbl>       <dbl>        <dbl>       <dbl>
 1          5.1         3.5          1.4         0.2
 2          4.9         3            1.4         0.2
 3          4.7         3.2          1.3         0.2
 4          4.6         3.1          1.5         0.2
 5          5           3.6          1.4         0.2
 6          5.4         3.9          1.7         0.4
 7          4.6         3.4          1.4         0.3
 8          5           3.4          1.5         0.2
 9          4.4         2.9          1.4         0.2
10          4.9         3.1          1.5         0.1
# … with 140 more rows
on pourrait juste vouloir enlever une colonne. La colonne species nous gène un peu pour faire des statistiques.

> select(iris, starts_with("Petal"))
# A tibble: 150 × 2
   Petal.Length Petal.Width
          <dbl>       <dbl>
 1          1.4         0.2
 2          1.4         0.2
 3          1.3         0.2
 4          1.5         0.2
 5          1.4         0.2
 6          1.7         0.4
 7          1.4         0.3
 8          1.5         0.2
 9          1.4         0.2
10          1.5         0.1
# … with 140 more rows
On pourrait vouloir sélectionner des colonnes selon on un mot dans les noms de colonnes pas avec le nom de colonne en entier. On veut sélectionner une colonne qui commence par sépal. Je vais utiliser une option qui s'appel starts_width commence par Petal. Tu prends toutes les colonnes qui commence par petal.

> select(iris, -starts_with("Sepal"))
# A tibble: 150 × 3
   Petal.Length Petal.Width Species
          <dbl>       <dbl> <fct>  
 1          1.4         0.2 setosa 
 2          1.4         0.2 setosa 
 3          1.3         0.2 setosa 
 4          1.5         0.2 setosa 
 5          1.4         0.2 setosa 
 6          1.7         0.4 setosa 
 7          1.4         0.3 setosa 
 8          1.5         0.2 setosa 
 9          1.4         0.2 setosa 
10          1.5         0.1 setosa 
# … with 140 more rows
Après je voudrais peut-être enlever des colonnes qui commence par Sepal.

> select(iris, ends_with("Length"))
# A tibble: 150 × 2
   Sepal.Length Petal.Length
          <dbl>        <dbl>
 1          5.1          1.4
 2          4.9          1.4
 3          4.7          1.3
 4          4.6          1.5
 5          5            1.4
 6          5.4          1.7
 7          4.6          1.4
 8          5            1.5
 9          4.4          1.4
10          4.9          1.5
# … with 140 more rows
AU lieu de commencer par, on peut finit par. Imaginons que nous voulons toutes les colonnes qui finissent par Length. Select iris et qui termine ends_width Length.

> select(iris, contains("al"))
# A tibble: 150 × 4
   Sepal.Length Sepal.Width Petal.Length Petal.Width
          <dbl>       <dbl>        <dbl>       <dbl>
 1          5.1         3.5          1.4         0.2
 2          4.9         3            1.4         0.2
 3          4.7         3.2          1.3         0.2
 4          4.6         3.1          1.5         0.2
 5          5           3.6          1.4         0.2
 6          5.4         3.9          1.7         0.4
 7          4.6         3.4          1.4         0.3
 8          5           3.4          1.5         0.2
 9          4.4         2.9          1.4         0.2
10          4.9         3.1          1.5         0.1
# … with 140 more rows
Au lieu de commencer ou terminer par un mot. On peut dire contient un mot avec contains. Par exemple on cherche le motif al. Peu importe ou il sera dans le nom de la colonne. Il sera sélectionné

# filter : filtrer selon les individus

> filter(iris, Sepal.Length >= 5, Sepal.Width >= 2)
# A tibble: 128 × 5
   Sepal.Length Sepal.Width Petal.Length Petal.Width Species
          <dbl>       <dbl>        <dbl>       <dbl> <fct>  
 1          5.1         3.5          1.4         0.2 setosa 
 2          5           3.6          1.4         0.2 setosa 
 3          5.4         3.9          1.7         0.4 setosa 
 4          5           3.4          1.5         0.2 setosa 
 5          5.4         3.7          1.5         0.2 setosa 
 6          5.8         4            1.2         0.2 setosa 
 7          5.7         4.4          1.5         0.4 setosa 
 8          5.4         3.9          1.3         0.4 setosa 
 9          5.1         3.5          1.4         0.3 setosa 
10          5.7         3.8          1.7         0.3 setosa 
# … with 118 more rows
On pourrait par exemple selectionner les individus qui ont des grandes petales. Il me dit qu'en tout, il y a 128 individus avec les filtres passées en paramètre. Il y a 150 individus en tout dans iris.

> filter(iris, between(Sepal.Length, 4, 7))
# A tibble: 138 × 5
   Sepal.Length Sepal.Width Petal.Length Petal.Width Species
          <dbl>       <dbl>        <dbl>       <dbl> <fct>  
 1          5.1         3.5          1.4         0.2 setosa 
 2          4.9         3            1.4         0.2 setosa 
 3          4.7         3.2          1.3         0.2 setosa 
 4          4.6         3.1          1.5         0.2 setosa 
 5          5           3.6          1.4         0.2 setosa 
 6          5.4         3.9          1.7         0.4 setosa 
 7          4.6         3.4          1.4         0.3 setosa 
 8          5           3.4          1.5         0.2 setosa 
 9          4.4         2.9          1.4         0.2 setosa 
10          4.9         3.1          1.5         0.1 setosa 
# … with 128 more rows
On pourrait demander une valeur de sepal compris entre deux valeurs. On va utiliser notre jeu de données iris et la on va utiliser une fonction qui s'appelle between. À laquelle on va donnée le nom de la colonne sur laquelle on va appliqué le filtre. puis les valeurs de la colonnes devront être comprisent entre des deux valeurs passées à cette fonction sont incluses. J'ai 138 individus qui rentre dans cette case là.

> filter(iris, Species == "setosa")
# A tibble: 50 × 5
   Sepal.Length Sepal.Width Petal.Length Petal.Width Species
          <dbl>       <dbl>        <dbl>       <dbl> <fct>  
 1          5.1         3.5          1.4         0.2 setosa 
 2          4.9         3            1.4         0.2 setosa 
 3          4.7         3.2          1.3         0.2 setosa 
 4          4.6         3.1          1.5         0.2 setosa 
 5          5           3.6          1.4         0.2 setosa 
 6          5.4         3.9          1.7         0.4 setosa 
 7          4.6         3.4          1.4         0.3 setosa 
 8          5           3.4          1.5         0.2 setosa 
 9          4.4         2.9          1.4         0.2 setosa 
10          4.9         3.1          1.5         0.1 setosa 
# … with 40 more rows
On voudrait faire un sous-ensemble dans le tableau suivant l'espèce. Par exemple, on voulait le table pour les espéces qui sont des setosa. Il me donne un aperçut de mon tableau. Il y a 50 individus qui sont setosa.

> filter(iris, Species != "setosa")
# A tibble: 100 × 5
   Sepal.Length Sepal.Width Petal.Length Petal.Width Species   
          <dbl>       <dbl>        <dbl>       <dbl> <fct>     
 1          7           3.2          4.7         1.4 versicolor
 2          6.4         3.2          4.5         1.5 versicolor
 3          6.9         3.1          4.9         1.5 versicolor
 4          5.5         2.3          4           1.3 versicolor
 5          6.5         2.8          4.6         1.5 versicolor
 6          5.7         2.8          4.5         1.3 versicolor
 7          6.3         3.3          4.7         1.6 versicolor
 8          4.9         2.4          3.3         1   versicolor
 9          6.6         2.9          4.6         1.3 versicolor
10          5.2         2.7          3.9         1.4 versicolor
# … with 90 more rows
Je pourrais vouloir tous les individus qui ne sont pas setosa. Au lieu de mettre éauivalent on va mettre différent. On voit donc qu'on a du versicolor et on a 100 individus au lieu de 150

> filter(iris, Species %in% c("setosa", "versicolor"))
# A tibble: 100 × 5
   Sepal.Length Sepal.Width Petal.Length Petal.Width Species
          <dbl>       <dbl>        <dbl>       <dbl> <fct>  
 1          5.1         3.5          1.4         0.2 setosa 
 2          4.9         3            1.4         0.2 setosa 
 3          4.7         3.2          1.3         0.2 setosa 
 4          4.6         3.1          1.5         0.2 setosa 
 5          5           3.6          1.4         0.2 setosa 
 6          5.4         3.9          1.7         0.4 setosa 
 7          4.6         3.4          1.4         0.3 setosa 
 8          5           3.4          1.5         0.2 setosa 
 9          4.4         2.9          1.4         0.2 setosa 
10          4.9         3.1          1.5         0.1 setosa 
# … with 90 more rows
Si on veut sélectionner deux groupes. Si je veux sélectionner deux colonnes : setosa et versicolor. Il faudrait que j'utilise un opérateur que l'on a déjà vu %in% et on va lui donnée un vecteur. Je veux que espéces soit versicolor ou setosa. L'ensemble verginica n'est pas là.

> filter(iris, (Species == "setosa" | Species == "versicolor"))
# A tibble: 100 × 5
   Sepal.Length Sepal.Width Petal.Length Petal.Width Species
          <dbl>       <dbl>        <dbl>       <dbl> <fct>  
 1          5.1         3.5          1.4         0.2 setosa 
 2          4.9         3            1.4         0.2 setosa 
 3          4.7         3.2          1.3         0.2 setosa 
 4          4.6         3.1          1.5         0.2 setosa 
 5          5           3.6          1.4         0.2 setosa 
 6          5.4         3.9          1.7         0.4 setosa 
 7          4.6         3.4          1.4         0.3 setosa 
 8          5           3.4          1.5         0.2 setosa 
 9          4.4         2.9          1.4         0.2 setosa 
10          4.9         3.1          1.5         0.1 setosa 
# … with 90 more rows
donne le même résultat

> filter_all(iris[,-5], any_vars(. > 5))
# A tibble: 118 × 4
   Sepal.Length Sepal.Width Petal.Length Petal.Width
          <dbl>       <dbl>        <dbl>       <dbl>
 1          5.1         3.5          1.4         0.2
 2          5.4         3.9          1.7         0.4
 3          5.4         3.7          1.5         0.2
 4          5.8         4            1.2         0.2
 5          5.7         4.4          1.5         0.4
 6          5.4         3.9          1.3         0.4
 7          5.1         3.5          1.4         0.3
 8          5.7         3.8          1.7         0.3
 9          5.1         3.8          1.5         0.3
10          5.4         3.4          1.7         0.2
# … with 108 more rows
Si on veut faire sur toutes les colonnes du tibble, on utilise la function filter_all. Je donne species sans la variable species. Si une des variables est supérieur à 5 et si toutes les variables sont en dessous de 5 on ne garde pas l'individu. On voit qu'il ya 118 individus qui ont au moins une variable au-dessus de 5.

> filter(iris, (Sepal.Length > 5 | Sepal.Width > 5 | Petal.Length > 5 |
+                 Petal.Width > 5))
# A tibble: 118 × 5
   Sepal.Length Sepal.Width Petal.Length Petal.Width Species
          <dbl>       <dbl>        <dbl>       <dbl> <fct>  
 1          5.1         3.5          1.4         0.2 setosa 
 2          5.4         3.9          1.7         0.4 setosa 
 3          5.4         3.7          1.5         0.2 setosa 
 4          5.8         4            1.2         0.2 setosa 
 5          5.7         4.4          1.5         0.4 setosa 
 6          5.4         3.9          1.3         0.4 setosa 
 7          5.1         3.5          1.4         0.3 setosa 
 8          5.7         3.8          1.7         0.3 setosa 
 9          5.1         3.8          1.5         0.3 setosa 
10          5.4         3.4          1.7         0.2 setosa 
# … with 108 more rows
donne le meme resultat

> filter_all(iris[,-5], all_vars(. > 2))
# A tibble: 23 × 4
   Sepal.Length Sepal.Width Petal.Length Petal.Width
          <dbl>       <dbl>        <dbl>       <dbl>
 1          6.3         3.3          6           2.5
 2          7.1         3            5.9         2.1
 3          6.5         3            5.8         2.2
 4          7.6         3            6.6         2.1
 5          7.2         3.6          6.1         2.5
 6          6.8         3            5.5         2.1
 7          5.8         2.8          5.1         2.4
 8          6.4         3.2          5.3         2.3
 9          7.7         3.8          6.7         2.2
10          7.7         2.6          6.9         2.3
# … with 13 more rows
On a 23 individu ou il y a toutes les valeurs sont supérieur à 2.

# operateur pipe
L'opérateur pipe qui ets un opérateur pipe qui est très important avec le package Dplyr. Il permet d'enchaîner les verbes de Dplyr. Cette opérateur pipe s'écrit %>%. En gros ce que ça fait, cet qu'il prends la sortie de la première fonction. On va mettre un pipe à côté ce qui veut dire que la sortie va être redirigé vers la deuxième fonctions et ainsi de suite.
Ça permet d'enchaîner les verbes de faires des choses super lisible et super puissante.

> iris %>%
+ select(Sepal.Length, Petal.Length, Species)
# A tibble: 150 × 3
   Sepal.Length Petal.Length Species
          <dbl>        <dbl> <fct>  
 1          5.1          1.4 setosa 
 2          4.9          1.4 setosa 
 3          4.7          1.3 setosa 
 4          4.6          1.5 setosa 
 5          5            1.4 setosa 
 6          5.4          1.7 setosa 
 7          4.6          1.4 setosa 
 8          5            1.5 setosa 
 9          4.4          1.4 setosa 
10          4.9          1.5 setosa 
# … with 140 more rows
On va mettre l'objet que l'on souhaite donnée entrer. puis le pipe %>%, puis enfin les verbes que l'on souhaite lui donnée. Notre verbe c'est select. On lui dit les colonnes que l'on veut sélectionner. On a plus besoin de mettre iris dans le select. Tou simplement parce quon lui donne déjà iris. Grâce au pipe on envoie iris directement à la fonction.
On se retrouve du coup avec nos 3 colonnes comme précédemment

> iris %>%
+ select(-Species) %>%
+ filter_all(all_vars(. > 2))
# A tibble: 23 × 4
   Sepal.Length Sepal.Width Petal.Length Petal.Width
          <dbl>       <dbl>        <dbl>       <dbl>
 1          6.3         3.3          6           2.5
 2          7.1         3            5.9         2.1
 3          6.5         3            5.8         2.2
 4          7.6         3            6.6         2.1
 5          7.2         3.6          6.1         2.5
 6          6.8         3            5.5         2.1
 7          5.8         2.8          5.1         2.4
 8          6.4         3.2          5.3         2.3
 9          7.7         3.8          6.7         2.2
10          7.7         2.6          6.9         2.3
# … with 13 more rows
…
